{
    "responseStatus": "PRODUCT_FOUND_RESPONSE",
    "responseMessage": "Product successfully found!",
    "productTitle": "Samsung Galaxy S20 5G Factory Unlocked New Android Cell Phone US Version, 128GB of Storage, Fingerprint ID and Facial Recognition, Long-Lasting Battery, Cloud Pink",
    "manufacturer": "Visit the Samsung Electronics Store",
    "countReview": 285,
    "answeredQuestions": 55,
    "productRating": "4.7 out of 5 stars",
    "asin": "B082XXQDJF",
    "sizeSelection": [],
    "soldBy": "Amazon.com",
    "fulfilledBy": "Amazon.com",
    "warehouseAvailability": "In Stock.",
    "retailPrice": 999.99,
    "price": 799.99,
    "priceRange": null,
    "shippingPrice": 0,
    "priceShippingInformation": "& FREE Shipping. Details",
    "priceSaving": "You Save: $200.00 (20%)",
    "features": [
        "Power of 5G: Get next-level power for everything you love to do with Samsung Galaxy 5G; Share more, game harder, experience more and never miss a beat",
        "Single Take AI: Capture video and multiple types of images with one tap of the shutter button; Lenses, effects and filters capture the best of every moment, every time",
        "Hires Camera Zoom: Capture hires images as if you’re 3 feet away, from 100 feet away; Whether you want to zoom in close from afar or magnify details nearby, the new 30x Space Zoom gives you impressive power and clarity",
        "Bright Night Mode: Capture crisp images and vibrant video in Bright Night mode and create high-quality content in low light – no flash needed",
        "Super Fast Charging: Charge up quicker with Super Fast Charge so you can keep moving with more juice; Give your buds – or Galaxy buds – a boost of power with Wireless PowerShare right from Galaxy S20 5G",
        "All-day Battery: Galaxy S20 5G’s intelligent battery uses an algorithm to learn from how you live to optimize power and take you through a day or more of work and life without ever giving out on you",
        "Massive Storage: Generous storage out of the box and expandable memory means you never have to delete what’s important to you; Memory card sold separately",
        "Included Components: Screen Protector Leaflet, Smart Switch Insert, Quick Reference Manual, Terms & Conditions/ Health & Safety Guide"
    ],
    "imageUrlList": [
        "https://images-na.ssl-images-amazon.com/images/I/61-u5AW3n6L._AC_SL1286_.jpg",
        "https://images-na.ssl-images-amazon.com/images/I/41fmBPtXB2L._AC_SL1500_.jpg",
        "https://images-na.ssl-images-amazon.com/images/I/71lLPRWsewL._AC_SL1500_.jpg",
        "https://images-na.ssl-images-amazon.com/images/I/61uM4f6XDFL._AC_SL1500_.jpg",
        "https://images-na.ssl-images-amazon.com/images/I/61KwHN4aPtL._AC_SL1500_.jpg",
        "https://images-na.ssl-images-amazon.com/images/I/41U1wad-PGL._AC_SL1500_.jpg"
    ],
    "productDescription": "More camera, more power, more fun – in a slim, balanced form. Create anywhere on the sleek, powerful Galaxy S20 5G with an expansive 6. 2” Infinity-O display and radical new 30x Space Zoom. Galaxy S20 5G’s modern design gives you an immersive, cinema-quality experience with next-level functionality. Take pro-quality, hi-res images and video with a groundbreaking 64MP camera and full system of studio lenses with super stabilization. Features like the Single Take AI make it quick and easy to capture multiple photos and video with a single tap. Zoom in close, even from 100 feet away, and capture crisp images at night, even without flash, with Bright Night mode. Share your content in real time with double-tap sharing and get hours of power from minutes of charge with Super Fast Charging. Galaxy S20 5G’s intelligent battery lasts all day to power every scroll, click, call, tap, playlist and season finale. Do more of what you love with the device that gives you more. Note: Samsung Galaxy S20 5G does not operate on the Verizon 5G mmW network. It will operate on the Verizon 4G LTE network. See carriers for details.",
    "productDetails": [
        {
            "name": "Product Dimensions",
            "value": "6.7 x 3.4 x 2.44 inches"
        },
        {
            "name": "Item Weight",
            "value": "5.7 ounces"
        },
        {
            "name": "ASIN",
            "value": "B082XXQDJF"
        },
        {
            "name": "Item model number",
            "value": "SM-G981UZIAXAA"
        },
        {
            "name": "Batteries",
            "value": "1 Lithium ion batteries required. (included)"
        },
        {
            "name": "Customer Reviews",
            "value": "4.7 out of 5 stars 285 ratings 4.7 out of 5 stars"
        },
        {
            "name": "Best Sellers Rank",
            "value": "#725 in Cell Phones & Accessories (See Top 100 in Cell Phones & Accessories) #10 in Unlocked Cell Phones"
        },
        {
            "name": "Date First Available",
            "value": "February 10, 2020"
        },
        {
            "name": "Manufacturer",
            "value": "Samsung"
        }
    ],
    "minimalQuantity": "1",
    "dealPrice": 0,
    "salePrice": 0,
    "reviews": [
        {
            "text": "I've been using Samsung phones for years, switched over from Apple in 2012 and never looked back. My last phone was a Samsung 7 Edge so the s20 is a huge improvement! The screen is wide, touchscreen is smooth, the speed on this phone is amazingly fast and the camera takes great pictures! No regrets here! I am also beyond the moon elated to get the phone in pink! Not many pink phones out there and this is a gorgeous pink. Love it! I got the bundle which came with the wireless charging kit and Bluetooth earbuds for the same price! Wireless charging is much faster how with the USB-c cables and the earbuds can also be charged wirelessly on the same kit! Definitely get the bundle!",
            "date": "Reviewed in the United States on March 20, 2020",
            "rating": "5.0 out of 5 stars",
            "title": "Satisfied Samsung customer",
            "userName": "Michelle",
            "url": "/gp/customer-reviews/R3DZXE8HKGSD1Q/ref=cm_cr_dp_d_rvw_ttl?ie=UTF8&ASIN=B082XXQDJF",
            "imageUrlList": []
        },
        {
            "text": "The design is absolutely beautiful. The pink color is fantastic. Samsung's camera is always high quality. The only disappointment is that after I purchased it the price significantly was dropped and neither Amazon neither Samsung did price adjustment. But I still very enjoy my new phone I forwarded to Moscow, Russia, where we only have this model in grey, blue, red, so my color is unique here)",
            "date": "Reviewed in the United States on April 15, 2020",
            "rating": "5.0 out of 5 stars",
            "title": "exceed expectations! Absolutely beautiful",
            "userName": "Tati",
            "url": "/gp/customer-reviews/R2KIHJW8TTH8NJ/ref=cm_cr_dp_d_rvw_ttl?ie=UTF8&ASIN=B082XXQDJF",
            "imageUrlList": []
        },
        {
            "text": "Your browser does not support HTML5 video. It's worth it✨",
            "date": "Reviewed in the United States on June 19, 2020",
            "rating": "5.0 out of 5 stars",
            "title": "It's worth it✨",
            "userName": "Vivian Lee",
            "url": "/gp/customer-reviews/R20G4GNRP48ZU/ref=cm_cr_dp_d_rvw_ttl?ie=UTF8&ASIN=B082XXQDJF",
            "imageUrlList": [
                "https://images-na.ssl-images-amazon.com/images/I/612CPVRCnHL._SY88.jpg",
                "https://images-na.ssl-images-amazon.com/images/I/71d28mgNiJL._SY88.jpg"
            ]
        },
        {
            "text": "It's so cute, fast & slick! I'm so in love with the color! Perfect match with my pink buds+. Came with a pre-installed screen protector. I LOVE IT!!!! Thank you Amazon & Samsung! Best purchase I ever had! It's safely delivered and it came a day before the schedule. 6/22 - So I've been using it for couple weeks now, the battery lasts long and the super fast charger's great! The performance it gave me while playing mobile games are really awesome!!! This is so perfect!",
            "date": "Reviewed in the United States on June 4, 2020",
            "rating": "5.0 out of 5 stars",
            "title": "Perfect match with my pink buds+",
            "userName": "Rein Moreno",
            "url": "/gp/customer-reviews/R1D2QNJU0LEVXC/ref=cm_cr_dp_d_rvw_ttl?ie=UTF8&ASIN=B082XXQDJF",
            "imageUrlList": [
                "https://images-na.ssl-images-amazon.com/images/I/61wZBlnI4LL._SY88.jpg"
            ]
        },
        {
            "text": "Phone came in quickly. Flawless. Set up under Boost Mobile without any issue. Not one issue with this phone operations, Battery life is not great but thats to be expected when buying used.. Couldn't be happier. The charger that came with it is not a quick charger though so be sure to buy an extra.",
            "date": "Reviewed in the United States on September 25, 2020",
            "rating": "5.0 out of 5 stars",
            "title": "Galaxy S20 unlocked",
            "userName": "Amazon Customer",
            "url": "/gp/customer-reviews/RYZBPQ478DUMH/ref=cm_cr_dp_d_rvw_ttl?ie=UTF8&ASIN=B082XXQDJF",
            "imageUrlList": []
        },
        {
            "text": "Love my phone but don't use the finger print feature. Super easy to set up and transfer information. Slightly taller but less wide than my S7. Very easy to adapt to the feel of this phone.",
            "date": "Reviewed in the United States on September 16, 2020",
            "rating": "5.0 out of 5 stars",
            "title": "Love this phone",
            "userName": "Toners",
            "url": "/gp/customer-reviews/R2TDHVLLWQ78N0/ref=cm_cr_dp_d_rvw_ttl?ie=UTF8&ASIN=B082XXQDJF",
            "imageUrlList": []
        },
        {
            "text": "Best phone I have ever owned. Very nice. It has everything I need.",
            "date": "Reviewed in the United States on July 15, 2020",
            "rating": "5.0 out of 5 stars",
            "title": "Best Phone",
            "userName": "Steve Cox",
            "url": "/gp/customer-reviews/R3LNFWA6AYCZGQ/ref=cm_cr_dp_d_rvw_ttl?ie=UTF8&ASIN=B082XXQDJF",
            "imageUrlList": []
        },
        {
            "text": "Had this phone for less then 24 hours. And the screen is already scratched!",
            "date": "Reviewed in the United States on March 11, 2020",
            "rating": "4.0 out of 5 stars",
            "title": "Scratched screen within 24 hours!",
            "userName": "Jessica Wisniewski",
            "url": "/gp/customer-reviews/R3OCPMWGXXJ3RB/ref=cm_cr_dp_d_rvw_ttl?ie=UTF8&ASIN=B082XXQDJF",
            "imageUrlList": []
        }
    ],
    "productSpecification": [],
    "mainImage": {
        "imageUrl": "https://images-na.ssl-images-amazon.com/images/I/61-u5AW3n6L._AC_SY879_.jpg",
        "imageResolution": "440 x 879"
    },
    "variations": [
        {
            "variationName": "variation_style_name",
            "values": [
                {
                    "value": "S20 5G",
                    "dpUrl": "",
                    "selected": true,
                    "available": true,
                    "price": 0,
                    "imageUrl": null,
                    "asin": "B082XXQDJF"
                },
                {
                    "value": "S20 Ultra",
                    "dpUrl": "/dp/B082XYGR2C/ref=twister_B08GNRGB67",
                    "selected": false,
                    "available": false,
                    "price": 0,
                    "imageUrl": null,
                    "asin": ""
                },
                {
                    "value": "S20 Ultra W/ Verizon eGift Card",
                    "dpUrl": "/dp/B08KYS87P6/ref=twister_B08GNRGB67",
                    "selected": false,
                    "available": false,
                    "price": 0,
                    "imageUrl": null,
                    "asin": ""
                },
                {
                    "value": "S20+",
                    "dpUrl": "/dp/B082XXR64G/ref=twister_B08GNRGB67",
                    "selected": false,
                    "available": false,
                    "price": 0,
                    "imageUrl": null,
                    "asin": ""
                },
                {
                    "value": "S20+ W/ Verizon eGift Card",
                    "dpUrl": "/dp/B08KYS6D7G/ref=twister_B08GNRGB67",
                    "selected": false,
                    "available": false,
                    "price": 0,
                    "imageUrl": null,
                    "asin": ""
                }
            ]
        },
        {
            "variationName": "variation_color_name",
            "values": [
                {
                    "value": "Cloud Blue",
                    "dpUrl": "/dp/B082XXKZRC/ref=twister_B08GNRGB67?_encoding=UTF8&psc=1",
                    "selected": false,
                    "available": true,
                    "price": 0,
                    "imageUrl": "https://images-na.ssl-images-amazon.com/images/I/11RlrZF6nnL._SS36_.jpg",
                    "asin": "B082XXKZRC"
                },
                {
                    "value": "Cloud Pink",
                    "dpUrl": "",
                    "selected": true,
                    "available": true,
                    "price": 0,
                    "imageUrl": "https://images-na.ssl-images-amazon.com/images/I/110D97YoOdL._SS36_.jpg",
                    "asin": "B082XXQDJF"
                },
                {
                    "value": "Cosmic Gray",
                    "dpUrl": "/dp/B082XY23D5/ref=twister_B08GNRGB67?_encoding=UTF8&psc=1",
                    "selected": false,
                    "available": true,
                    "price": 0,
                    "imageUrl": "https://images-na.ssl-images-amazon.com/images/I/11%2BCGL36hCL._SS36_.jpg",
                    "asin": "B082XY23D5"
                },
                {
                    "value": "Cosmic Black",
                    "dpUrl": "/dp/B082XY39M7/ref=twister_B08GNRGB67",
                    "selected": false,
                    "available": false,
                    "price": 0,
                    "imageUrl": "https://images-na.ssl-images-amazon.com/images/I/11q-IlZScNL._SS36_.jpg",
                    "asin": ""
                }
            ]
        },
        {
            "variationName": "variation_size_name",
            "values": [
                {
                    "value": "128GB",
                    "dpUrl": "",
                    "selected": true,
                    "available": true,
                    "price": 0,
                    "imageUrl": null,
                    "asin": "B082XXQDJF"
                },
                {
                    "value": "512GB",
                    "dpUrl": "/dp/B082XXR64K/ref=twister_B08GNRGB67",
                    "selected": false,
                    "available": false,
                    "price": 0,
                    "imageUrl": null,
                    "asin": ""
                }
            ]
        }
    ],
    "categories": [
        "Cell Phones & Accessories",
        "Cell Phones",
        "Unlocked Cell Phones"
    ],
    "currency": {
        "code": "USD",
        "symbol": "$"
    },
    "acKeywordLink": null,
    "deliveryMessage": "Arrives: Tuesday, Nov 17 Details",
    "rentPrice": 0,
    "usedPrice": 659.59,
    "retailPriceRent": 0,
    "addon": false,
    "pantry": false,
    "prime": false
}